<?xml version="1.0" encoding="UTF-8" standalone="no"?>
<!-- Created with Inkscape (http://www.inkscape.org/) -->

<svg
   xmlns:dc="http://purl.org/dc/elements/1.1/"
   xmlns:cc="http://creativecommons.org/ns#"
   xmlns:rdf="http://www.w3.org/1999/02/22-rdf-syntax-ns#"
   xmlns:svg="http://www.w3.org/2000/svg"
   xmlns="http://www.w3.org/2000/svg"
   xmlns:sodipodi="http://sodipodi.sourceforge.net/DTD/sodipodi-0.dtd"
   xmlns:inkscape="http://www.inkscape.org/namespaces/inkscape"
   width="210mm"
   height="297mm"
   viewBox="0 0 210 297"
   version="1.1"
   id="svg8"
   inkscape:version="0.92.4 (5da689c313, 2019-01-14)"
   sodipodi:docname="logo.svg">
  <defs
     id="defs2" />
  <sodipodi:namedview
     id="base"
     pagecolor="#ffffff"
     bordercolor="#666666"
     borderopacity="1.0"
     inkscape:pageopacity="0.0"
     inkscape:pageshadow="2"
     inkscape:zoom="2"
     inkscape:cx="242.50853"
     inkscape:cy="984.8508"
     inkscape:document-units="mm"
     inkscape:current-layer="layer1"
     showgrid="false"
     inkscape:snap-text-baseline="true"
     inkscape:window-width="1366"
     inkscape:window-height="739"
     inkscape:window-x="0"
     inkscape:window-y="0"
     inkscape:window-maximized="1" />
  <metadata
     id="metadata5">
    <rdf:RDF>
      <cc:Work
         rdf:about="">
        <dc:format>image/svg+xml</dc:format>
        <dc:type
           rdf:resource="http://purl.org/dc/dcmitype/StillImage" />
        <dc:title></dc:title>
      </cc:Work>
    </rdf:RDF>
  </metadata>
  <g
     inkscape:label="Layer 1"
     inkscape:groupmode="layer"
     id="layer1">
    <flowRoot
       xml:space="preserve"
       id="flowRoot3713"
       style="fill:black;fill-opacity:1;stroke:none;font-family:sans-serif;font-style:normal;font-weight:normal;font-size:40px;line-height:1.25;letter-spacing:0px;word-spacing:0px"><flowRegion
         id="flowRegion3715"><rect
           id="rect3717"
           width="537.14288"
           height="400"
           x="140"
           y="251.09111" /></flowRegion><flowPara
         id="flowPara3719"></flowPara></flowRoot>    <g
       id="g4200"
       transform="matrix(1.1545659,0,0,0.9999979,-39.403221,-1.5355392)" />
    <g
       id="g4275"
       transform="translate(20.240625,-4.365625)">
      <flowRoot
         transform="matrix(1.0116928,0,0,1.2084937,-117.84402,-344.28719)"
         style="font-style:normal;font-weight:normal;font-size:40px;line-height:1.25;font-family:sans-serif;letter-spacing:0px;word-spacing:0px;fill:#deffff;fill-opacity:1;stroke:none"
         id="flowRoot3721-0-6-2"
         xml:space="preserve"><flowRegion
           style="fill:#deffff"
           id="flowRegion3723-2-3-2"><rect
             style="fill:#deffff"
             y="305.37683"
             x="114.28571"
             height="325.71429"
             width="560"
             id="rect3725-2-7-7" /></flowRegion><flowPara
           id="flowPara3727-9-9-0">D</flowPara></flowRoot>      <flowRoot
         transform="matrix(1.0116928,0,0,1.2084937,-124.78048,-351.43317)"
         style="font-style:normal;font-weight:normal;font-size:40px;line-height:1.25;font-family:sans-serif;letter-spacing:0px;word-spacing:0px;fill:#99ccff;fill-opacity:1;stroke:none"
         id="flowRoot3721-1-1-6"
         xml:space="preserve"><flowRegion
           style="fill:#99ccff"
           id="flowRegion3723-9-7-3"><rect
             style="fill:#99ccff"
             y="305.37683"
             x="114.28571"
             height="325.71429"
             width="560"
             id="rect3725-6-0-6" /></flowRegion><flowPara
           id="flowPara3727-4-6-3">D</flowPara></flowRoot>      <flowRoot
         xml:space="preserve"
         id="flowRoot3721-0"
         style="font-style:normal;font-weight:normal;font-size:40px;line-height:1.25;font-family:sans-serif;letter-spacing:0px;word-spacing:0px;fill:#deffff;fill-opacity:1;stroke:none"
         transform="matrix(0.66162171,0,0,1.2084912,-64.405671,-344.28634)"><flowRegion
           id="flowRegion3723-2"
           style="fill:#deffff"><rect
             id="rect3725-2"
             width="560"
             height="325.71429"
             x="114.28571"
             y="305.37683"
             style="fill:#deffff" /></flowRegion><flowPara
           id="flowPara3727-9">   tto</flowPara></flowRoot>      <text
         xml:space="preserve"
         style="font-style:normal;font-weight:normal;font-size:4.45162582px;line-height:1.25;font-family:sans-serif;letter-spacing:0px;word-spacing:0px;fill:#deffff;fill-opacity:1;stroke:none;stroke-width:0.11129063"
         x="64.782906"
         y="46.062916"
         id="text3767-7"
         transform="matrix(1.046991,0,0,1.1027445,-39.403221,-1.5355392)"><tspan
           sodipodi:role="line"
           id="tspan3765-5"
           x="64.782906"
           y="46.062916"
           style="font-style:normal;font-variant:normal;font-weight:normal;font-stretch:normal;font-size:21.36780357px;font-family:MathJax_SansSerif;-inkscape-font-specification:MathJax_SansSerif;fill:#deffff;stroke-width:0.11129063">&quot;</tspan></text>
      <rect
         style="fill:#deffff;stroke-width:0.13087064"
         id="rect3769-6"
         width="2.2516422"
         height="26.473801"
         x="61.125893"
         y="41.928703"
         transform="matrix(1.1545659,0,0,0.99999789,-39.403221,-1.5355392)" />
      <text
         xml:space="preserve"
         style="font-style:normal;font-weight:normal;font-size:4.45162582px;line-height:1.25;font-family:sans-serif;letter-spacing:0px;word-spacing:0px;fill:#99ccff;fill-opacity:1;stroke:none;stroke-width:0.11129063"
         x="58.38443"
         y="39.222862"
         id="text3767-8"
         transform="matrix(1.046991,0,0,1.1027445,-39.403221,-1.5355392)"><tspan
           sodipodi:role="line"
           id="tspan3765-0"
           x="58.38443"
           y="39.222862"
           style="font-style:normal;font-variant:normal;font-weight:normal;font-stretch:normal;font-size:21.36780357px;font-family:MathJax_SansSerif;-inkscape-font-specification:MathJax_SansSerif;fill:#99ccff;stroke-width:0.11129063">&quot;</tspan></text>
      <rect
         style="fill:#99ccff;stroke-width:0.13087064"
         id="rect3769-8"
         width="2.2516422"
         height="26.473801"
         x="55.323589"
         y="34.385853"
         transform="matrix(1.1545659,0,0,0.99999789,-39.403221,-1.5355392)" />
      <text
         xml:space="preserve"
         style="font-style:normal;font-weight:normal;font-size:4.45162582px;line-height:1.25;font-family:sans-serif;letter-spacing:0px;word-spacing:0px;fill:#ff3300;fill-opacity:1;stroke:none;stroke-width:0.11129063"
         x="52.066154"
         y="32.403103"
         id="text3767"
         transform="matrix(1.046991,0,0,1.1027445,-39.403221,-1.5355392)"><tspan
           sodipodi:role="line"
           id="tspan3765"
           x="52.066154"
           y="32.403103"
           style="font-style:normal;font-variant:normal;font-weight:normal;font-stretch:normal;font-size:21.36780357px;font-family:MathJax_SansSerif;-inkscape-font-specification:MathJax_SansSerif;fill:#ff3300;stroke-width:0.11129063">&quot;</tspan></text>
      <rect
         style="fill:#003399;stroke-width:0.13087064"
         id="rect3769"
         width="2.2516422"
         height="26.473801"
         x="49.594006"
         y="26.865387"
         transform="matrix(1.1545659,0,0,0.99999789,-39.403221,-1.5355392)" />
      <flowRoot
         xml:space="preserve"
         id="flowRoot3721-1"
         style="font-style:normal;font-weight:normal;font-size:40px;line-height:1.25;font-family:sans-serif;letter-spacing:0px;word-spacing:0px;fill:#99ccff;fill-opacity:1;stroke:none"
         transform="matrix(0.66162171,0,0,1.2084912,-71.104818,-351.82916)"><flowRegion
           id="flowRegion3723-9"
           style="fill:#99ccff"><rect
             id="rect3725-6"
             width="560"
             height="325.71429"
             x="114.28571"
             y="305.37683"
             style="fill:#99ccff" /></flowRegion><flowPara
           id="flowPara3727-4">   tto</flowPara></flowRoot>      <flowRoot
         xml:space="preserve"
         id="flowRoot3721"
         style="font-style:normal;font-weight:normal;font-size:40px;line-height:1.25;font-family:sans-serif;letter-spacing:0px;word-spacing:0px;fill:#003399;fill-opacity:1;stroke:none"
         transform="matrix(0.66162171,0,0,1.2084912,-77.719994,-359.34962)"><flowRegion
           id="flowRegion3723"
           style="fill:#003399"><rect
             id="rect3725"
             width="560"
             height="325.71429"
             x="114.28571"
             y="305.37683"
             style="fill:#003399" /></flowRegion><flowPara
           id="flowPara3727">   tto</flowPara></flowRoot>      <flowRoot
         transform="matrix(1.0116928,0,0,1.2084937,-129.73643,-358.82135)"
         style="font-style:normal;font-weight:normal;font-size:40px;line-height:1.25;font-family:sans-serif;letter-spacing:0px;word-spacing:0px;fill:#003399;fill-opacity:1;stroke:none"
         id="flowRoot3721-3-4"
         xml:space="preserve"><flowRegion
           style="fill:#003399"
           id="flowRegion3723-94-3"><rect
             style="fill:#003399"
             y="305.37683"
             x="114.28571"
             height="325.71429"
             width="560"
             id="rect3725-1-9" /></flowRegion><flowPara
           id="flowPara3727-5-7">D</flowPara></flowRoot>    </g>
  </g>
</svg>
